<svg width="60" height="60" viewBox="0 0 60 60" version="1.1" xmlns="http://www.w3.org/2000/svg" xmlns:xlink="http://www.w3.org/1999/xlink">
<title>ico_media</title>
<desc>Created using Figma</desc>
<g id="Canvas" transform="translate(-512 -6558)">
<g id="ico_media">
<g id="Ellipse">
<use xlink:href="#path0_fill" transform="translate(512 6558)" fill="#0052A8"/>
</g>
<g id="noun_1153028">
<g id="Group">
<g id="Vector">
<use xlink:href="#path1_fill" transform="translate(517 6564)" fill="#F1F7FF"/>
</g>
</g>
</g>
</g>
</g>
<defs>
<path id="path0_fill" d="M 60 30C 60 46.5685 46.5685 60 30 60C 13.4315 60 0 46.5685 0 30C 0 13.4315 13.4315 0 30 0C 46.5685 0 60 13.4315 60 30Z"/>
<path id="path1_fill" d="M 10.2 1.66227e-06C 9.5282 0.0215963 8.94068 0.698066 8.925 1.27027L 8.925 15.2432L 1.275 15.2432C 0.585289 15.2598 0.0156825 15.9413 0 16.5135L 0 41.2838C 0 44.4286 2.58098 47 5.7375 47L 45.2625 47C 48.419 47 51 44.4286 51 41.2838L 51 1.27027C 50.9999 0.605177 50.3926 6.51758e-05 49.725 1.66227e-06L 10.2 1.66227e-06ZM 11.475 2.54054L 48.45 2.54054L 48.45 41.2838C 48.45 43.0651 47.0504 44.4594 45.2625 44.4594L 10.3594 44.4594C 11.0043 43.5353 11.475 42.4886 11.475 41.2838L 11.475 2.54054ZM 16.575 6.35135C 15.9 6.35326 15.3157 7.04942 15.3 7.62162L 15.3 16.5135C 15.3001 17.1786 15.9074 17.7837 16.575 17.7838L 29.325 17.7838C 29.9926 17.7837 30.5999 17.1786 30.6 16.5135L 30.6 7.62162C 30.5999 6.95653 29.9926 6.35141 29.325 6.35135L 16.575 6.35135ZM 34.425 7.62162C 33.7208 7.62162 33.15 8.19032 33.15 8.89189C 33.15 9.59346 33.7208 10.1622 34.425 10.1622L 43.35 10.1622C 44.0542 10.1622 44.625 9.59346 44.625 8.89189C 44.625 8.19032 44.0542 7.62162 43.35 7.62162L 34.425 7.62162ZM 17.85 8.89189L 28.05 8.89189L 28.05 15.2432L 17.85 15.2432L 17.85 8.89189ZM 34.425 13.973C 33.7208 13.973 33.15 14.5417 33.15 15.2432C 33.15 15.9448 33.7208 16.5135 34.425 16.5135L 43.35 16.5135C 44.0542 16.5135 44.625 15.9448 44.625 15.2432C 44.625 14.5417 44.0542 13.973 43.35 13.973L 34.425 13.973ZM 2.55 17.7838L 8.925 17.7838L 8.925 41.2838C 8.925 43.0651 7.52543 44.4594 5.7375 44.4594C 3.94957 44.4594 2.55 43.0651 2.55 41.2838L 2.55 17.7838ZM 16.575 21.5946C 15.8708 21.5946 15.3 22.1633 15.3 22.8649C 15.3 23.5664 15.8708 24.1351 16.575 24.1351L 43.35 24.1351C 44.0542 24.1351 44.625 23.5664 44.625 22.8649C 44.625 22.1633 44.0542 21.5946 43.35 21.5946L 16.575 21.5946ZM 16.575 28.5811C 15.8708 28.5811 15.3 29.1498 15.3 29.8513C 15.3 30.5529 15.8708 31.1216 16.575 31.1216L 43.35 31.1216C 44.0542 31.1216 44.625 30.5529 44.625 29.8513C 44.625 29.1498 44.0542 28.5811 43.35 28.5811L 16.575 28.5811ZM 16.575 35.5676C 15.8708 35.5676 15.3 36.1363 15.3 36.8378C 15.3 37.5394 15.8708 38.1081 16.575 38.1081L 43.35 38.1081C 44.0542 38.1081 44.625 37.5394 44.625 36.8378C 44.625 36.1363 44.0542 35.5676 43.35 35.5676L 16.575 35.5676Z"/>
</defs>
</svg>
