<svg width="60" height="60" viewBox="0 0 60 60" version="1.1" xmlns="http://www.w3.org/2000/svg" xmlns:xlink="http://www.w3.org/1999/xlink">
<title>ico_konsultan</title>
<desc>Created using Figma</desc>
<g id="Canvas" transform="translate(-412 -6330)">
<g id="ico_konsultan">
<g id="Ellipse">
<use xlink:href="#path0_fill" transform="translate(412 6330)" fill="#0052A8"/>
</g>
<g id="noun_1146667">
<g id="Group">
<g id="Vector">
<use xlink:href="#path1_fill" transform="translate(422.331 6333)" fill="#F1F7FF"/>
</g>
<g id="Vector">
<use xlink:href="#path2_fill" transform="translate(412 6341.03)" fill="#F1F7FF"/>
</g>
</g>
</g>
</g>
</g>
<defs>
<path id="path0_fill" d="M 60 30C 60 46.5685 46.5685 60 30 60C 13.4315 60 0 46.5685 0 30C 0 13.4315 13.4315 0 30 0C 46.5685 0 60 13.4315 60 30Z"/>
<path id="path1_fill" d="M 7.35099 14.7273C 11.3907 14.7273 14.702 11.4103 14.702 7.36364C 14.702 3.31695 11.3907 1.26532e-07 7.35099 1.26532e-07C 3.31126 1.26532e-07 -5.05258e-07 3.31695 -5.05258e-07 7.36364C -5.05258e-07 11.4103 3.24503 14.7273 7.35099 14.7273ZM 7.35099 2.58722C 9.93377 2.58722 12.053 4.71007 12.053 7.2973C 12.053 9.88452 9.93377 12.0074 7.35099 12.0074C 4.76821 12.0074 2.64901 9.88452 2.64901 7.2973C 2.64901 4.71007 4.70199 2.58722 7.35099 2.58722Z"/>
<path id="path2_fill" d="M 60 21.2285C 60 18.5749 57.8146 16.3857 55.1656 16.3857L 55.0993 16.3857L 55.0993 10.9459C 55.0993 9.48649 53.9073 8.29238 52.4503 8.29238L 50.9934 8.29238L 50.9934 2.65356C 50.9934 1.1941 49.8013 -2.53063e-07 48.3444 -2.53063e-07L 35.4305 -2.53063e-07C 33.9735 -2.53063e-07 32.7815 1.1941 32.7815 2.65356L 32.7815 8.29238C 32.7815 9.75184 33.9735 10.9459 35.4305 10.9459L 36.8874 10.9459L 36.8874 16.3857L 29.2715 16.3857C 28.543 11.4767 24.3046 7.62899 19.1391 7.62899L 16.0927 7.62899C 10.9272 7.62899 6.68874 11.4103 5.96027 16.3857L 4.83444 16.3857C 2.18543 16.3857 -1.26314e-07 18.5749 -1.26314e-07 21.2285C -1.26314e-07 23.4177 1.45695 25.2752 3.44371 25.8722L 5.23179 39.0737C 5.76159 42.9877 9.13907 45.973 13.1126 45.973L 46.4901 45.973C 50.3974 45.973 53.7086 43.1867 54.3046 39.3391L 56.5563 25.8722C 58.543 25.3415 60 23.484 60 21.2285ZM 35.4305 8.29238L 35.4305 2.65356L 48.3444 2.65356L 48.3444 8.29238L 39.5364 8.29238L 35.4305 8.29238ZM 39.5364 10.9459L 49.7351 10.9459L 52.5166 10.9459L 52.5166 16.3857L 39.5364 16.3857L 39.5364 10.9459ZM 16.1589 10.2826L 19.2053 10.2826C 22.8477 10.2826 25.9603 12.8698 26.6887 16.3857L 8.6755 16.3857C 9.40397 12.9361 12.4503 10.2826 16.1589 10.2826ZM 51.7219 38.941C 51.3245 41.5283 49.0729 43.3857 46.4901 43.3857L 13.0464 43.3857C 10.3974 43.3857 8.1457 41.3956 7.81457 38.8084L 6.15894 26.1376L 53.8411 26.1376L 51.7219 38.941ZM 55.1656 23.484L 4.83444 23.484C 3.64238 23.484 2.64901 22.4889 2.64901 21.2948C 2.64901 20.1007 3.64238 19.1057 4.83444 19.1057L 55.1656 19.1057C 56.3576 19.1057 57.351 20.1007 57.351 21.2948C 57.351 22.4889 56.3576 23.484 55.1656 23.484Z"/>
</defs>
</svg>
