<svg width="60" height="60" viewBox="0 0 60 60" version="1.1" xmlns="http://www.w3.org/2000/svg" xmlns:xlink="http://www.w3.org/1999/xlink">
<title>ico_kontruksi</title>
<desc>Created using Figma</desc>
<g id="Canvas" transform="translate(-312 -6216)">
<g id="ico_kontruksi">
<g id="Ellipse">
<use xlink:href="#path0_fill" transform="translate(312 6216)" fill="#0052A8"/>
</g>
<g id="noun_1261446">
<g id="Group">
<g id="Vector">
<use xlink:href="#path1_fill" transform="translate(320 6217)" fill="#F1F7FF"/>
</g>
<g id="Vector">
<use xlink:href="#path2_fill" transform="translate(328.874 6252.84)" fill="#F1F7FF"/>
</g>
<g id="Vector">
<use xlink:href="#path3_fill" transform="translate(350.064 6265.39)" fill="#F1F7FF"/>
</g>
<g id="Vector">
<use xlink:href="#path4_fill" transform="translate(322.72 6265.39)" fill="#F1F7FF"/>
</g>
<g id="Vector">
<use xlink:href="#path5_fill" transform="translate(341.614 6265.29)" fill="#F1F7FF"/>
</g>
<g id="Vector">
<use xlink:href="#path6_fill" transform="translate(338.594 6269.9)" fill="#F1F7FF"/>
</g>
<g id="Vector">
<use xlink:href="#path7_fill" transform="translate(344.635 6265.29)" fill="#F1F7FF"/>
</g>
<g id="Vector">
<use xlink:href="#path8_fill" transform="translate(338.592 6265.29)" fill="#F1F7FF"/>
</g>
<g id="Vector">
<use xlink:href="#path9_fill" transform="translate(335.569 6265.29)" fill="#F1F7FF"/>
</g>
<g id="Vector">
<use xlink:href="#path10_fill" transform="translate(332.548 6265.29)" fill="#F1F7FF"/>
</g>
<g id="Vector">
<use xlink:href="#path11_fill" transform="translate(344.635 6269.9)" fill="#F1F7FF"/>
</g>
<g id="Vector">
<use xlink:href="#path12_fill" transform="translate(341.614 6269.9)" fill="#F1F7FF"/>
</g>
<g id="Vector">
<use xlink:href="#path13_fill" transform="translate(335.568 6269.9)" fill="#F1F7FF"/>
</g>
<g id="Vector">
<use xlink:href="#path14_fill" transform="translate(332.55 6269.9)" fill="#F1F7FF"/>
</g>
</g>
</g>
</g>
</g>
<defs>
<path id="path0_fill" d="M 60 30C 60 46.5685 46.5685 60 30 60C 13.4315 60 0 46.5685 0 30C 0 13.4315 13.4315 0 30 0C 46.5685 0 60 13.4315 60 30Z"/>
<path id="path1_fill" d="M 45 26.1655C 45 24.9647 44.3353 23.917 43.3417 23.3549L 43.3417 22.1853L 44.0605 22.1853C 44.5796 22.1853 45 21.7571 45 21.2285C 45 20.6999 44.5772 20.2717 44.0605 20.2717L 43.3417 20.2717L 43.3417 6.36257C 43.3417 6.32908 43.3253 6.30038 43.3229 6.26689C 44.0651 5.6115 44.5443 4.65472 44.5443 3.57835C 44.5443 1.60499 42.9682 2.13856e-09 41.0304 2.13856e-09C 39.6704 2.13856e-09 38.503 0.798909 37.9181 1.94943C 37.8782 1.98053 37.8289 1.99966 37.7936 2.04033L 22.6011 18.6452C 21.4032 18.6428 20.2052 18.638 19.0096 18.6404L 18.7583 18.6404C 16.4447 18.6452 15.0635 20.0588 15.0588 22.4197L 15.0565 28.9114L 8.89773 28.9114C 8.20011 28.9066 7.51658 28.9066 6.82601 28.9138C 4.74726 28.9329 3.2933 30.4207 3.2886 32.528L 3.2886 36.7833C 3.2886 36.7857 3.28625 36.7881 3.28625 36.7905C 3.28625 36.7929 3.2886 36.7953 3.2886 36.7976L 3.28625 43.6338C 3.28625 44.1624 3.70905 44.5906 4.2258 44.5906L 13.1046 44.5978L 13.1046 45.71L 5.60929 45.7124C 3.44363 45.7124 1.75948 46.7123 0.737718 48.6043C -0.300487 50.5298 -0.241765 52.5342 0.906837 54.3976C 1.95679 56.0958 3.59865 56.9952 5.66097 56.9976L 27.1931 57L 33.0653 56.9976C 36.2528 56.9952 38.658 54.5554 38.6627 51.3263C 38.6651 49.8218 38.1013 48.4153 37.0725 47.3676C 36.0249 46.2985 34.6015 45.71 33.07 45.71L 25.1802 45.7076L 25.1802 44.605L 30.2655 44.6073C 30.5145 44.6073 30.754 44.5069 30.9279 44.3275C 31.104 44.1481 31.205 43.9041 31.205 43.6506L 31.205 43.0167C 31.205 38.9193 30.8621 28.189 30.7259 26.8998C 30.7259 25.7541 30.5826 24.7494 30.3641 23.8238C 30.3665 23.8214 30.3712 23.819 30.3735 23.8166L 41.4579 8.72342L 41.4579 20.2717L 40.7415 20.2717C 40.2224 20.2717 39.8019 20.6999 39.8019 21.2285C 39.8019 21.7571 40.2247 22.1853 40.7415 22.1853L 41.4579 22.1853L 41.4579 23.7544C 41.3686 24.1993 41.6012 24.6251 41.9981 24.8068C 42.0169 24.8164 42.0357 24.826 42.0545 24.8355C 42.0827 24.8475 42.1062 24.8666 42.1367 24.8762C 42.7122 25.0269 43.1162 25.5603 43.1162 26.1679C 43.1162 26.9046 42.529 27.5026 41.8055 27.5026C 41.0821 27.5026 40.4949 26.9046 40.4949 26.1679C 40.4949 25.6392 40.0721 25.2111 39.5553 25.2111C 39.0385 25.2111 38.6157 25.6392 38.6157 26.1679C 38.6157 27.9594 40.0462 29.4137 41.8055 29.4137C 43.5648 29.4137 45 27.9546 45 26.1655ZM 28.8538 27.0003C 28.9102 27.5528 29.0018 29.7582 29.091 32.4252C 27.6629 32.4276 25.5771 32.43 24.5107 32.4252C 23.395 32.418 22.8054 31.8081 22.8031 30.6623C 22.796 28.0216 22.796 23.5582 22.7984 20.5468C 23.55 20.5468 24.3064 20.5516 25.058 20.5588C 25.2107 20.5635 28.8468 20.7023 28.8538 27.0003ZM 37.1524 10.1562L 32.4053 10.7374L 36.7625 5.97507L 37.1524 10.1562ZM 31.0524 18.0352L 25.3939 18.4012L 30.5943 12.718L 31.0524 18.0352ZM 32.4593 12.6582L 36.5957 12.1511L 32.7741 17.3535L 32.4593 12.6582ZM 38.6533 6.19752C 39.1137 6.63047 39.6821 6.94859 40.3187 7.08254L 38.8882 9.02958L 38.6533 6.19752ZM 41.0304 1.91355C 41.9324 1.91355 42.6629 2.65984 42.6629 3.57835C 42.6629 4.49685 41.93 5.24314 41.0304 5.24314C 40.1308 5.24314 39.3979 4.49685 39.3979 3.57835C 39.3979 2.65984 40.1284 1.91355 41.0304 1.91355ZM 35.7454 48.7191C 36.4172 49.4056 36.786 50.3289 36.7836 51.3239C 36.7836 53.4671 35.184 55.0817 33.0677 55.0841L 19.3643 55.0841L 5.66332 55.0841C 4.2446 55.0841 3.20639 54.5243 2.49938 53.3786C 1.7219 52.1204 1.68432 50.824 2.38428 49.5252C 3.07485 48.2479 4.1295 47.626 5.60929 47.626L 33.07 47.6236C 34.1012 47.6212 35.0525 48.0111 35.7454 48.7191ZM 23.3011 45.7076L 19.3244 45.7076L 16.5809 45.7076L 14.9884 45.7076L 14.9884 44.6002L 19.8505 44.6002L 23.3011 44.6026L 23.3011 45.7076ZM 24.2453 42.689C 24.243 42.689 24.243 42.689 24.2406 42.689L 23.2353 42.689L 13.4898 42.6794C 13.4733 42.6794 13.4592 42.6794 13.4428 42.6794L 12.3576 42.6794L 5.1677 42.6794L 5.16536 40.4358L 5.1677 37.7473L 5.88646 37.7473C 6.40556 37.7473 6.82601 37.3191 6.82601 36.7905C 6.82601 36.2619 6.40322 35.8337 5.88646 35.8337L 5.1677 35.8337L 5.17005 32.5304C 5.17005 31.4732 5.7972 30.8369 6.8448 30.8274C 7.52598 30.8202 8.2095 30.825 8.89303 30.825L 15.996 30.825C 16.5151 30.825 16.9356 30.3968 16.9356 29.8682L 16.9332 27.5193L 16.9403 22.4245C 16.9403 21.1328 17.5017 20.5564 18.7607 20.554L 19.012 20.554C 19.6485 20.5516 20.2827 20.5516 20.9193 20.5492C 20.9169 23.5606 20.9169 28.024 20.9216 30.6671C 20.9287 32.8509 22.3662 34.3268 24.4966 34.3387C 25.5771 34.3459 27.7146 34.3411 29.1498 34.3387C 29.2414 37.4219 29.3165 40.7276 29.3236 42.6938L 24.2453 42.689ZM 29.5937 21.6854C 29.3024 21.1543 28.9712 20.6688 28.5672 20.2598C 28.5156 20.2071 28.4639 20.1713 28.4122 20.1234L 30.8574 19.9655L 29.5937 21.6854Z"/>
<path id="path2_fill" d="M 6.44063 9.30703e-07L 0.939552 9.30703e-07C 0.420449 9.30703e-07 -2.77768e-07 0.428158 -2.77768e-07 0.956777C -2.77768e-07 1.4854 0.422798 1.91355 0.939552 1.91355L 6.44298 1.91355C 6.96208 1.91355 7.38253 1.4854 7.38253 0.956777C 7.38253 0.428158 6.95973 9.30703e-07 6.44063 9.30703e-07Z"/>
<path id="path3_fill" d="M 2.94786 5.95955C 2.95256 5.95955 2.98074 5.95955 2.98544 5.95955C 4.57798 5.94041 5.87691 4.60571 5.88396 2.98397C 5.88631 2.1755 5.5833 1.41964 5.03131 0.850358C 3.93439 -0.271463 1.98012 -0.295382 0.859704 0.850358C 0.30302 1.41964 -0.0023348 2.1755 1.40781e-05 2.98158C 0.0094096 4.62245 1.33418 5.95955 2.94786 5.95955ZM 2.18917 2.20181C 2.39117 1.9961 2.6566 1.88368 2.94316 1.88368C 3.22972 1.88368 3.49749 1.9961 3.6948 2.19942C 3.89445 2.40273 4.00485 2.68019 4.0025 2.9768C 4.00015 3.55804 3.53273 4.03882 2.96195 4.046L 2.94786 5.00277L 2.94786 4.046C 2.37238 4.046 1.88147 3.55326 1.87912 2.97201C 1.87677 2.6802 1.98717 2.40751 2.18917 2.20181Z"/>
<path id="path4_fill" d="M 1.34418e-05 2.98158C 0.0117578 4.62485 1.33418 5.95955 2.95021 5.95955C 2.9549 5.95955 2.98309 5.95955 2.98779 5.95955C 4.58033 5.94041 5.87926 4.60571 5.88631 2.98397C 5.88865 2.1755 5.58565 1.41964 5.03366 0.850358C 3.93908 -0.271463 1.98012 -0.295382 0.862053 0.850358C 0.303019 1.41964 -0.00233544 2.1755 1.34418e-05 2.98158ZM 2.19152 2.20181C 2.39352 1.9961 2.65895 1.88368 2.94551 1.88368C 3.23207 1.88368 3.49984 1.9961 3.69715 2.19942C 3.8968 2.40273 4.0072 2.68019 4.00485 2.9768C 4.0025 3.55804 3.53508 4.03882 2.9643 4.046L 2.95021 5.00277L 2.95021 4.046C 2.37473 4.046 1.88382 3.55326 1.88147 2.97201C 1.87912 2.6802 1.98951 2.40751 2.19152 2.20181Z"/>
<path id="path5_fill" d="M 0.74699 1.50951C 1.151 1.50473 1.49158 1.14833 1.48219 0.736914C 1.47279 0.347027 1.1416 0.00976152 0.758734 0.000193753C 0.357076 -0.00937402 0.00239537 0.337457 4.64859e-05 0.748871C -0.00465127 1.15311 0.350029 1.51429 0.74699 1.50951Z"/>
<path id="path6_fill" d="M 0.768267 0.000583745C 0.366609 -0.0161599 0.00958019 0.32828 0.000184673 0.739694C -0.00921084 1.14393 0.340773 1.5099 0.740083 1.5099C 1.14409 1.51229 1.48937 1.15589 1.48468 0.746871C 1.47763 0.356984 1.15113 0.0173273 0.768267 0.000583745Z"/>
<path id="path7_fill" d="M 0.733418 1.512C 1.13273 1.51439 1.48506 1.15799 1.48506 0.751363C 1.48271 0.344732 1.12333 -0.0116654 0.726373 0.000294318C 0.327063 0.00986209 -0.0158734 0.380611 0.000568804 0.78485C 0.0146621 1.17474 0.352899 1.50961 0.733418 1.512Z"/>
<path id="path8_fill" d="M 0.765839 1.51172C 1.14636 1.49737 1.4752 1.15532 1.4846 0.765433C 1.49399 0.354019 1.14871 -0.00237957 0.744699 1.23725e-05C 0.343041 0.00240432 -0.00694099 0.361194 0.000105643 0.767824C 0.00715228 1.16967 0.373576 1.52607 0.765839 1.51172Z"/>
<path id="path9_fill" d="M 0.763398 1.51052C 1.16506 1.49856 1.5033 1.12781 1.4845 0.723574C 1.46571 0.31216 1.09929 -0.0227124 0.699979 0.00120704C 0.319461 0.0251265 -0.0023366 0.374347 1.22765e-05 0.761842C 0.00705891 1.16847 0.366437 1.52248 0.763398 1.51052Z"/>
<path id="path10_fill" d="M 0.744642 1.50974C 1.12516 1.50974 1.4634 1.17966 1.48454 0.789769C 1.50568 0.38553 1.16744 0.0123874 0.765781 0.00042767C 0.364123 -0.013924 0.00709373 0.335298 4.70932e-05 0.741929C -0.00465067 1.14856 0.342983 1.50974 0.744642 1.50974Z"/>
<path id="path11_fill" d="M 0.775422 0.000758818C 0.378461 -0.0183767 0.0120364 0.326067 0.000292041 0.732697C -0.0114524 1.13694 0.333831 1.5029 0.733141 1.51008C 1.13245 1.51725 1.48478 1.16085 1.48243 0.751831C 1.48243 0.364337 1.15829 0.0198944 0.775422 0.000758818Z"/>
<path id="path12_fill" d="M 0.711721 1.51411C 1.10868 1.53085 1.47276 1.18402 1.4845 0.774999C 1.49625 0.370761 1.14626 0.00479505 0.746955 1.11681e-05C 0.347646 -0.00238078 -0.00233678 0.354019 1.20961e-05 0.763042C 0.00236098 1.15293 0.328854 1.49737 0.711721 1.51411Z"/>
<path id="path13_fill" d="M 0.735486 1.51229C 1.13245 1.51707 1.48478 1.15828 1.48478 0.751653C 1.48478 0.359374 1.16298 0.0173236 0.775415 0.000579992C 0.378454 -0.0161636 0.0120294 0.330671 0.000285002 0.734909C -0.0114594 1.13676 0.340874 1.5075 0.735486 1.51229Z"/>
<path id="path14_fill" d="M 0.768269 1.51171C 1.15114 1.49496 1.47763 1.15292 1.48233 0.763028C 1.48703 0.354006 1.13939 -2.11689e-06 0.737734 -2.11689e-06C 0.338425 0.00238983 -0.00920952 0.363574 0.000185996 0.770205C 0.00723263 1.17684 0.373657 1.52845 0.768269 1.51171Z"/>
</defs>
</svg>
