<svg width="38" height="38" viewBox="0 0 38 38" version="1.1" xmlns="http://www.w3.org/2000/svg" xmlns:xlink="http://www.w3.org/1999/xlink">
<title>ico-tabs-help</title>
<desc>Created using Figma</desc>
<g id="Canvas" transform="translate(366 -4987)">
<clipPath id="clip-0" clip-rule="evenodd">
<path d="M -598 4405L -238 4405L -238 5045L -598 5045L -598 4405Z" fill="#FFFFFF"/>
</clipPath>
<g id="Riwayat Eviden" clip-path="url(#clip-0)">
<g id="Menu Bar">
<g id="Bantuan">
<g id="Tidak Aktif">
<g id="np_help_1009845_000000">
<g id="Vector">
<use xlink:href="#path0_fill" transform="translate(-359 4994)" fill="#828282"/>
</g>
</g>
</g>
</g>
</g>
</g>
</g>
<defs>
<path id="path0_fill" d="M 12 8.52651e-16C 8.81712 8.52651e-16 5.7648 1.26468 3.5148 3.5148C 1.2648 5.76492 0 8.81736 0 12C 0 15.1826 1.26468 18.2352 3.5148 20.4852C 5.76492 22.7352 8.81736 24 12 24C 15.1826 24 18.2352 22.7353 20.4852 20.4852C 22.7352 18.2351 24 15.1826 24 12C 24 8.81736 22.7353 5.7648 20.4852 3.5148C 18.2351 1.2648 15.1826 0 12 0L 12 8.52651e-16ZM 12.9075 16.771C 12.9122 17.5416 12.48 18 11.7244 18C 10.9687 18 10.4644 17.5585 10.4616 16.9125C 10.4616 16.0172 10.8628 15.571 11.6616 15.5466C 12.3122 15.5278 12.989 15.9263 12.9075 16.771L 12.9075 16.771ZM 14.5875 11.2322C 14.2462 11.4966 13.889 11.7366 13.5459 11.9954C 13.0397 12.3272 12.7481 12.9029 12.7828 13.5076C 12.7997 13.9482 12.5147 14.3438 12.0909 14.4676C 11.64 14.641 11.1291 14.4882 10.8478 14.0954C 10.7587 13.9444 10.71 13.7738 10.7062 13.5985C 10.6716 12.4969 11.1825 11.4498 12.0722 10.8001C 12.4575 10.5066 12.8203 10.186 13.1587 9.8401C 13.3209 9.64978 13.4184 9.41448 13.44 9.16603C 13.4953 8.48729 13.0584 8.05042 12.3553 8.00448C 11.5059 7.94917 10.7906 8.17042 10.2938 8.92135C 10.08 9.28322 9.66376 9.47542 9.24937 9.40135C 8.52937 9.28135 8.21999 8.69542 8.51531 8.02135C 8.82469 7.36322 9.35531 6.83635 10.0153 6.53261C 10.6931 6.1998 11.4347 6.01793 12.1894 6.0001C 12.6169 6.0451 13.0406 6.11447 13.4588 6.20916C 14.7375 6.57197 15.4988 7.59384 15.5944 8.95236L 15.5953 8.95236C 15.6891 9.83829 15.3047 10.7074 14.5847 11.2324L 14.5875 11.2322Z"/>
</defs>
</svg>
